MyProject8/Binaries/Win64/MyProject8-Win64-Shipping.exe	2023-06-29T15:50:59.510Z
MyProject8/Binaries/Win64/OpenImageDenoise.dll	2021-12-14T19:08:53.491Z
MyProject8/Binaries/Win64/tbb12.dll	2021-12-14T19:08:53.494Z
Engine/Extras/Redist/en-us/UE4PrereqSetup_x64.exe	2021-12-14T18:55:17.142Z
Engine/Binaries/ThirdParty/Oculus/OVRPlugin/OVRPlugin/Win64/OVRPlugin.dll	2021-12-14T13:54:14.797Z
Engine/Binaries/ThirdParty/DbgHelp/dbghelp.dll	2021-12-14T13:53:48.671Z
Engine/Binaries/ThirdParty/PhysX3/Win64/VS2015/PxFoundation_x64.dll	2021-12-14T13:54:42.416Z
Engine/Binaries/ThirdParty/PhysX3/Win64/VS2015/PxPvdSDK_x64.dll	2021-12-14T13:54:42.432Z
Engine/Binaries/ThirdParty/PhysX3/Win64/VS2015/PhysX3_x64.dll	2021-12-14T13:54:38.786Z
Engine/Binaries/ThirdParty/PhysX3/Win64/VS2015/PhysX3Cooking_x64.dll	2021-12-14T13:54:42.250Z
Engine/Binaries/ThirdParty/PhysX3/Win64/VS2015/PhysX3Common_x64.dll	2021-12-14T13:54:39.303Z
Engine/Binaries/ThirdParty/PhysX3/Win64/VS2015/APEX_Clothing_x64.dll	2021-12-14T13:54:30.002Z
Engine/Binaries/ThirdParty/PhysX3/Win64/VS2015/APEX_Legacy_x64.dll	2021-12-14T13:54:32.926Z
Engine/Binaries/ThirdParty/PhysX3/Win64/VS2015/ApexFramework_x64.dll	2021-12-14T13:54:38.083Z
Engine/Binaries/ThirdParty/PhysX3/Win64/VS2015/NvCloth_x64.dll	2021-12-14T13:54:38.733Z
Engine/Binaries/ThirdParty/Ogg/Win64/VS2015/libogg_64.dll	2021-12-14T13:54:14.806Z
Engine/Binaries/ThirdParty/Vorbis/Win64/VS2015/libvorbis_64.dll	2021-12-14T13:55:02.231Z
Engine/Binaries/ThirdParty/Vorbis/Win64/VS2015/libvorbisfile_64.dll	2021-12-14T13:55:02.233Z
Engine/Binaries/ThirdParty/NVIDIA/NVaftermath/Win64/GFSDK_Aftermath_Lib.x64.dll	2021-12-14T13:54:07.442Z
Engine/Binaries/ThirdParty/OpenXR/win64/openxr_loader.dll	2021-12-14T13:54:14.862Z
Engine/Binaries/ThirdParty/OpenVR/OpenVRv1_5_17/Win64/openvr_api.dll	2021-12-14T13:54:14.846Z
Engine/Binaries/ThirdParty/NVIDIA/GeForceNOW/Win64/GfnRuntimeSdk.dll	2021-12-14T13:54:07.431Z
Engine/Binaries/ThirdParty/Windows/XAudio2_9/x64/xaudio2_9redist.dll	2021-12-14T13:55:05.500Z
MyProject8.exe	2023-06-29T15:59:22.846Z
